{
  "project_info": {
    "project_number": "838022395448",
    "firebase_url": "https://nl-sogeti-android-gpstracker.firebaseio.com",
    "project_id": "nl-sogeti-android-gpstracker",
    "storage_bucket": "nl-sogeti-android-gpstracker.appspot.com"
  },
  "client": [
    {
      "client_info": {
        "mobilesdk_app_id": "1:838022395448:android:91d36ac9b95579e0",
        "android_client_info": {
          "package_name": "nl.sogeti.android.gpstracker"
        }
      },
      "oauth_client": [
        {
          "client_id": "838022395448-m6eufm1uspaf1f9vij7osf81pe3uktor.apps.googleusercontent.com",
          "client_type": 1,
          "android_info": {
            "package_name": "nl.sogeti.android.gpstracker",
            "certificate_hash": "252d219e7e388fd19b49e49560774e536a3d501c"
          }
        },
        {
          "client_id": "838022395448-igj2rumvqqu5csentseledrtcnl7ijtn.apps.googleusercontent.com",
          "client_type": 3
        }
      ],
      "api_key": [
        {
          "current_key": "AIzaSyAGAjfG1CqhS-QvIjjO_s6lINhI1mpB7GI"
        },
        {
          "current_key": "AIzaSyBOvjftoANGhCgSZSpCAB6UecUBoeMFggA"
        }
      ],
      "services": {
        "appinvite_service": {
          "other_platform_oauth_client": [
            {
              "client_id": "838022395448-igj2rumvqqu5csentseledrtcnl7ijtn.apps.googleusercontent.com",
              "client_type": 3
            }
          ]
        }
      }
    },
    {
      "client_info": {
        "mobilesdk_app_id": "1:838022395448:android:590f95f7bde4004f1dd8cd",
        "android_client_info": {
          "package_name": "nl.sogeti.android.gpstracker.develop"
        }
      },
      "oauth_client": [
        {
          "client_id": "838022395448-14hfrst3gk0p4mm7shtsb53jv5kk5gks.apps.googleusercontent.com",
          "client_type": 1,
          "android_info": {
            "package_name": "nl.sogeti.android.gpstracker.develop",
            "certificate_hash": "252d219e7e388fd19b49e49560774e536a3d501c"
          }
        },
        {
          "client_id": "838022395448-igj2rumvqqu5csentseledrtcnl7ijtn.apps.googleusercontent.com",
          "client_type": 3
        }
      ],
      "api_key": [
        {
          "current_key": "AIzaSyAGAjfG1CqhS-QvIjjO_s6lINhI1mpB7GI"
        },
        {
          "current_key": "AIzaSyBOvjftoANGhCgSZSpCAB6UecUBoeMFggA"
        }
      ],
      "services": {
        "appinvite_service": {
          "other_platform_oauth_client": [
            {
              "client_id": "838022395448-igj2rumvqqu5csentseledrtcnl7ijtn.apps.googleusercontent.com",
              "client_type": 3
            }
          ]
        }
      }
    },
    {
      "client_info": {
        "mobilesdk_app_id": "1:838022395448:android:590f95f7bde4004f1dd8cd",
        "android_client_info": {
          "package_name": "nl.sogeti.android.gpstracker.mock"
        }
      },
      "oauth_client": [
        {
          "client_id": "838022395448-14hfrst3gk0p4mm7shtsb53jv5kk5gks.apps.googleusercontent.com",
          "client_type": 1,
          "android_info": {
            "package_name": "nl.sogeti.android.gpstracker.mock",
            "certificate_hash": "252d219e7e388fd19b49e49560774e536a3d501c"
          }
        },
        {
          "client_id": "838022395448-igj2rumvqqu5csentseledrtcnl7ijtn.apps.googleusercontent.com",
          "client_type": 3
        }
      ],
      "api_key": [
        {
          "current_key": "AIzaSyAGAjfG1CqhS-QvIjjO_s6lINhI1mpB7GI"
        },
        {
          "current_key": "AIzaSyBOvjftoANGhCgSZSpCAB6UecUBoeMFggA"
        }
      ],
      "services": {
        "appinvite_service": {
          "other_platform_oauth_client": [
            {
              "client_id": "838022395448-igj2rumvqqu5csentseledrtcnl7ijtn.apps.googleusercontent.com",
              "client_type": 3
            }
          ]
        }
      }
    }
  ],
  "configuration_version": "1"
}
